{
    "mainTitle":"NIXGON SPACE",
    "tabMenu1":"BOOKING",
    "tabMenu2":"SCHEDULE",
    "completeButton":"COMPLETE",
    "KR": "South Korea",
    "Busan":"Busan",
    "Seomyeon":"Seomyeon",
    "SEOMYEON": "SEOMYEON",
    "Work":"Work",
    "CS":"CS",
    "FS":"FS",
    "BS":"CS",
    "IS":"FS",
    "Admin":"Admin Page",
    "MyBookings":"My Bookings",
    "SignOut":"Sign Out",
    "ExpirationDate":"Expiration Date",
    "Country" : "Country",
    "City" : "City",
    "Camp" : "Camp",
    "SpaceType" : "Space Type",
    "StartDate":"Start Date",
    "SpaceNumber":"Space Number",
    "StartTime":"Start Time",
    "Duration":"Duration",
    "Category": "Category",
    "membershiplevel":"Membership Level",
    "HOLD":"HOLD",
    "PAYMENT_COMPLETE":"PAYMENT COMPLETE",
    "IN_USE":"IN USE",
    "COMPLETE_USE":"COMPLETE USE",
    "CANCEL":"CANCEL",
    "Space": "Space",
    "NIXGON SPACE": "NIXGON SPACE",
    "Booking": "Booking",
    "Events": "Events",
    "o'clock": "o'clock",
    "hour": "hour",
    "Seconds": "Seconds",
    "Verification Code": "Verification Code",
    "Request Code": "Request Code",
    "Verify": "Verify",
    "Sign Up": "Sign Up",
    "Phone Number": "Phone Number",
    "required": "required",
    "StateChange":"State Change",
    "quantity":"quantity",
    "price":"price",
    "day":"day",
    "goToCart":"Go To Cart",
    "addToCart":"Add To Cart",
    "total":"total",
    "won":"won",
    "goToPayment":"Go To Payment",
    "PaymentComplete": "Payment Complete",
    "HowToPayment" :"How To Payment",
    "PaymentPrice" :"Payment Price",
    "RemainingPoints" :"Remaining Points",
    "PointUse" :"Point Use",
    "UseAblePoint": "Use Able Point",
    "ea":"ea",
    "Carts":"CARTS",
    "BUSAN": "Busan",
    "Maps": "Maps",
    "Phone number is required.": "Phone number is required.",
    " is canceled.": " is canceled.",
    "BASIC": "Basic",
    "PLUS": "Plus",
    "PRO": "Pro",
    "STAFF": "Staff",
    "EMPLOYEE": "Employee",
    "ADMIN": "Admin",
    "DENIED": "Denied",
    "Order Manager": "Managing Orders",
    "Member Manager": "Managing Members",
    "Change Level": "Update Level",
    "Unverified Members": "Unverified Members",
    "Verified Members": "Verified Members",
    "Verify Member": "Verify Member",
    "Change Number": "Change Seat",
    "Booking Cancel": "Cancel Booking",
    "Account Information": "Account Info",
    "family_name": "Last Name",
    "given_name": "First Name",
    "Change Mobile": "Change Mobile Number",
    "Change Name": "Change Name",
    "Level": "Level",
    "NIXGON SPACE": "NIXGON SPACE"
}
