{
  "rockets": [
    {          
      "id": "ag1zfm5peGdvbnNwYWNlchMLEgZSb2NrZXQYgICAwKj8qggM",
      "code": "1000000006",
      "title": "Coworking Space 1 Day Pass",
      "description": "코워킹 스페이스는 자유로운 대화 및 전화 통화가 가능한 카페형 개인 또는 공동 사무작업, 스터디, 모임 공간이며, 이에 필요한 고급 데스크 및 의자, 데스크별 전원 3개, 유선 랜포트 1개, RFID 카드 또는 비밀번호 인식 데스크 상부 보관함 등의 시설이 완비되어 있습니다.  ",
      "category": "SPACE",
      "type": "DAILY",
      "spaceType": "CS",
      "price": 8500,
      "kind": "nixgonspace#rocketsItem"
    },
    {
      "id": "ag1zfm5peGdvbnNwYWNlchMLEgZSb2NrZXQYgICAgJ35vggM",
      "code": "1000000001",
      "title": "Bright Space 1 Hour Pass",
      "description": "브라이트 스페이스는 최대 5인이 동시 이용 가능한 밀폐형 복합 모임 공간입니다. 그룹 스터디, 접견, 미팅, 회의 등의 소규모 모임 용도로 이용이 가능한 공간이며, 이에 필요한 데스크 1개, 의자 5개, 55인치 LED TV 1개, 전원 4개, 유선 랜 포트 1개, HDMI 포트 1개, USB 포트 1개, 개별 냉난방기 1개, 공조 등의 시설이 완비되어 있습니다.",
      "category": "SPACE",
      "type": "HOURLY",
      "spaceType": "BS",
      "price": 4500,
      "kind": "nixgonspace#rocketsItem"
    },
    {
      "id": "ag1zfm5peGdvbnNwYWNlchMLEgZSb2NrZXQYgICAgN7PrQkM",
      "code": "1000000005",
      "title": "Floworking Space Evening Pass",
      "description": "플로워킹 스페이스는 개인 몰입용 사무작업 및 스터디 공간이며, 이에 필요한 특수 설계된 고급 데스크 및 의자, 좌석별 전원 2개, 유선 랜포트 1개, LED 램프가 비치되어 있습니다. 또한, 몰입 사무작업 및 학습을 극대화 시키며 물품 보관함 역활을 하는 RFID 카드 작동 가림판이 있습니다.",
      "category": "SPACE",
      "type": "EVENING",
      "spaceType": "FS",
      "price": 5000,
      "kind": "nixgonspace#rocketsItem"
    },
    {
      "id": "ag1zfm5peGdvbnNwYWNlchMLEgZSb2NrZXQYgICAgL6CowoM",
      "code": "1000000008",
      "title": "Coworking Space 1 Month Pass",
      "description": "코워킹 스페이스는 자유로운 대화 및 전화 통화가 가능한 카페형 개인 또는 공동 사무작업, 스터디, 모임 공간이며, 이에 필요한 고급 데스크 및 의자, 데스크별 전원 3개, 유선 랜포트 1개, RFID 카드 또는 비밀번호 인식 데스크 상부 보관함 등의 시설이 완비되어 있습니다.  ",
      "category": "SPACE",
      "type": "MONTHLY",
      "spaceType": "CS",
      "price": 190000,
      "kind": "nixgonspace#rocketsItem"
    },
    {
      "id": "ag1zfm5peGdvbnNwYWNlchMLEgZSb2NrZXQYgICAgPz2rgoM",
      "code": "1000000009",
      "title": "Floworking Space 1 Month Pass",
      "description": "플로워킹 스페이스는 개인 몰입용 사무작업 및 스터디 공간이며, 이에 필요한 특수 설계된 고급 데스크 및 의자, 좌석별 전원 2개, 유선 랜포트 1개, LED 램프가 비치되어 있습니다. 또한, 몰입 사무작업 및 학습을 극대화 시키며 물품 보관함 역활을 하는 RFID 카드 작동 가림판이 있습니다.",
      "category": "SPACE",
      "type": "MONTHLY",
      "spaceType": "FS",
      "price": 190000,
      "kind": "nixgonspace#rocketsItem"
    },
    {
      "id": "ag1zfm5peGdvbnNwYWNlchMLEgZSb2NrZXQYgICAgOuivgoM",
      "code": "1000000007",
      "title": "Floworking Space 1 Day Pass",
      "description": "플로워킹 스페이스는 개인 몰입용 사무작업 및 스터디 공간이며, 이에 필요한 특수 설계된 고급 데스크 및 의자, 좌석별 전원 2개, 유선 랜포트 1개, LED 램프가 비치되어 있습니다. 또한, 몰입 사무작업 및 학습을 극대화 시키며 물품 보관함 역활을 하는 RFID 카드 작동 가림판이 있습니다.",
      "category": "SPACE",
      "type": "DAILY",
      "spaceType": "FS",
      "price": 8500,
      "kind": "nixgonspace#rocketsItem"
    },
    {
      "id": "ag1zfm5peGdvbnNwYWNlchMLEgZSb2NrZXQYgICAgNnw0gsM",
      "code": "1000000002",
      "title": "Insight Space S 1 Hour Pass",
      "description": "인사이트 스페이스(S)는 최대 50(6)인이 동시 이용 가능한 밀폐형 복합 모임 공간입니다. 그룹스터디, 접견, 미팅, 회의, 워크숍, 세미나, 강의, 파티, 커뮤니티 이벤트 등의 중대형 모임의 용도로 이용이 가능한 공간이며, 이에 필요한 최대 50인용 데스크 및 의자,  강연자 전용 데스크 및 의자, 강연대, 100인치 프로젝터, 65인치 LED TV, 스피커 1개, 서비스 테이블, 에스프레소 머신, 믹스커피 머신, 얼음 냉장고, 정수기, 서비스 테이블 등의 시설이 완비되어 있습니다.",
      "category": "SPACE",
      "type": "HOURLY",
      "spaceType": "ISS",
      "price": 5500,
      "kind": "nixgonspace#rocketsItem"
    },
    {
      "id": "ag1zfm5peGdvbnNwYWNlchMLEgZSb2NrZXQYgICAgISg0wsM",
      "code": "1000000004",
      "title": "Coworking Space Evening Pass",
      "description": "코워킹 스페이스는 자유로운 대화 및 전화 통화가 가능한 카페형 개인 또는 공동 사무작업, 스터디, 모임 공간이며, 이에 필요한 고급 데스크 및 의자, 데스크별 전원 3개, 유선 랜포트 1개, RFID 카드 또는 비밀번호 인식 데스크 상부 보관함 등의 시설이 완비되어 있습니다.  ",
      "category": "SPACE",
      "type": "EVENING",
      "spaceType": "CS",
      "price": 5000,
      "kind": "nixgonspace#rocketsItem"
    },
    {
      "id": "ag1zfm5peGdvbnNwYWNlchMLEgZSb2NrZXQYgICAwKjo0wsM",
      "code": "1000000003",
      "title": "Insight Space 1 Hour Pass",
      "description": "인사이트 스페이스(S)는 최대 50(6)인이 동시 이용 가능한 밀폐형 복합 모임 공간입니다. 그룹스터디, 접견, 미팅, 회의, 워크숍, 세미나, 강의, 파티, 커뮤니티 이벤트 등의 중대형 모임의 용도로 이용이 가능한 공간이며, 이에 필요한 최대 50인용 데스크 및 의자,  강연자 전용 데스크 및 의자, 강연대, 100인치 프로젝터, 65인치 LED TV, 스피커 1개, 서비스 테이블, 에스프레소 머신, 믹스커피 머신, 얼음 냉장고, 정수기, 서비스 테이블 등의 시설이 완비되어 있습니다.",
      "category": "SPACE",
      "type": "HOURLY",
      "spaceType": "IS",
      "price": 33000,
      "kind": "nixgonspace#rocketsItem"
    }
  ]
}
